…
print("\nBeta convergence by segment and chain:")
```

```
## [1] "\nBeta convergence by segment and chain:"
```

``` r
print(beta_convergence)
```

```
## # A tibble: 24 × 7
##    segment chain mean_beta  sd_beta median_beta q25_beta q75_beta
##      <dbl> <int>     <dbl>    <dbl>       <dbl>    <dbl>    <dbl>
##  1       1     1    0.300  0.000955       0.300    0.299   0.300 
##  2       1     2    0.300  0.00132        0.300    0.299   0.300 
##  3       1     3    0.300  0.000852       0.300    0.299   0.300 
##  4       1     4    0.300  0.00240        0.300    0.299   0.301 
##  5       2     1    0.0755 0.121          0.01     0.01    0.0106
##  6       2     2    0.0935 0.131          0.01     0.01    0.297 
##  7       2     3    0.0304 0.0739         0.01     0.01    0.01  
##  8       2     4    0.231  0.122          0.298    0.287   0.300 
##  9       3     1    0.0322 0.0778         0.01     0.01    0.01  
## 10       3     2    0.0176 0.0453         0.01     0.01    0.01  
## # ℹ 14 more rows
```
…
